{
  "cb33396f7058fa4f27bbdc8677cb7c082f65d1eb": "/Volumes/Home/Volume.noindex/Home/Projects/NYC Home Purchase/Code/nyc-property-search/latest/street-easier/data/2022-01-30/boundaries/1.index/maps/brooklyn-bridge-park--buid--cb33396f7058fa4f27bbdc8677cb7c082f65d1eb.png",
  "d6eb42edf54f947230a852175a162084f8b61487": "/Volumes/Home/Volume.noindex/Home/Projects/NYC Home Purchase/Code/nyc-property-search/latest/street-easier/data/2022-01-30/boundaries/1.index/maps/brooklyn-cadman-plaza-park--buid--d6eb42edf54f947230a852175a162084f8b61487.png",
  "0d1969d259e665d3d417ae35852024c961e61861": "/Volumes/Home/Volume.noindex/Home/Projects/NYC Home Purchase/Code/nyc-property-search/latest/street-easier/data/2022-01-30/boundaries/1.index/maps/brooklyn-downtown-park--buid--0d1969d259e665d3d417ae35852024c961e61861.png",
  "2ec3940c517b4d40aa5ba5f489d230c919775a64": "/Volumes/Home/Volume.noindex/Home/Projects/NYC Home Purchase/Code/nyc-property-search/latest/street-easier/data/2022-01-30/boundaries/1.index/maps/brooklyn-dyker-beach-park--buid--2ec3940c517b4d40aa5ba5f489d230c919775a64.png",
  "5df5b67151f62eb9363776db752ff7eb8180e5b0": "/Volumes/Home/Volume.noindex/Home/Projects/NYC Home Purchase/Code/nyc-property-search/latest/street-easier/data/2022-01-30/boundaries/1.index/maps/brooklyn-farout-waterclose--buid--5df5b67151f62eb9363776db752ff7eb8180e5b0.png",
  "783d8d600d4d71ba779cf99c5cff4cc701e7175f": "/Volumes/Home/Volume.noindex/Home/Projects/NYC Home Purchase/Code/nyc-property-search/latest/street-easier/data/2022-01-30/boundaries/1.index/maps/brooklyn-fort-greene-park--buid--783d8d600d4d71ba779cf99c5cff4cc701e7175f.png",
  "74bad645951dbc937a4b221b7e2937931b8ac1b5": "/Volumes/Home/Volume.noindex/Home/Projects/NYC Home Purchase/Code/nyc-property-search/latest/street-easier/data/2022-01-30/boundaries/1.index/maps/brooklyn-lower-waterclose--buid--74bad645951dbc937a4b221b7e2937931b8ac1b5.png",
  "17a676f13b1bd325a26af2458b65464b2904bd5b": "/Volumes/Home/Volume.noindex/Home/Projects/NYC Home Purchase/Code/nyc-property-search/latest/street-easier/data/2022-01-30/boundaries/1.index/maps/brooklyn-prospect-park--buid--17a676f13b1bd325a26af2458b65464b2904bd5b.png",
  "63e432d0080eb7155b594f4c97f173c5e511ccce": "/Volumes/Home/Volume.noindex/Home/Projects/NYC Home Purchase/Code/nyc-property-search/latest/street-easier/data/2022-01-30/boundaries/1.index/maps/brooklyn-red-hook-park--buid--63e432d0080eb7155b594f4c97f173c5e511ccce.png",
  "4faf40891f900e18f78d22ca93ec1384c2adbacf": "/Volumes/Home/Volume.noindex/Home/Projects/NYC Home Purchase/Code/nyc-property-search/latest/street-easier/data/2022-01-30/boundaries/1.index/maps/brooklyn-upper-waterclose--buid--4faf40891f900e18f78d22ca93ec1384c2adbacf.png",
  "3cc83b9d686cad5e795cae243930148f3effb678": "/Volumes/Home/Volume.noindex/Home/Projects/NYC Home Purchase/Code/nyc-property-search/latest/street-easier/data/2022-01-30/boundaries/1.index/maps/brooklyn-west-waterclose--buid--3cc83b9d686cad5e795cae243930148f3effb678.png",
  "e77da4dd5f92c57263f186aa3c2cd358c55a22bd": "/Volumes/Home/Volume.noindex/Home/Projects/NYC Home Purchase/Code/nyc-property-search/latest/street-easier/data/2022-01-30/boundaries/1.index/maps/manhattan-bryant-park--buid--e77da4dd5f92c57263f186aa3c2cd358c55a22bd.png",
  "3261fe48925a0d2324f7437ec74b6f15f59fd8ce": "/Volumes/Home/Volume.noindex/Home/Projects/NYC Home Purchase/Code/nyc-property-search/latest/street-easier/data/2022-01-30/boundaries/1.index/maps/manhattan-central-park--buid--3261fe48925a0d2324f7437ec74b6f15f59fd8ce.png",
  "c91a561ba423b0ef4a07d866eeae3e6a6ca5b056": "/Volumes/Home/Volume.noindex/Home/Projects/NYC Home Purchase/Code/nyc-property-search/latest/street-easier/data/2022-01-30/boundaries/1.index/maps/manhattan-central-park-east--buid--c91a561ba423b0ef4a07d866eeae3e6a6ca5b056.png",
  "1f74afc1ab23192aac5ffcde21d1baa5efd3cde6": "/Volumes/Home/Volume.noindex/Home/Projects/NYC Home Purchase/Code/nyc-property-search/latest/street-easier/data/2022-01-30/boundaries/1.index/maps/manhattan-central-park-north--buid--1f74afc1ab23192aac5ffcde21d1baa5efd3cde6.png",
  "41eb83580bfd4a010d5492c27f6581351bd467ad": "/Volumes/Home/Volume.noindex/Home/Projects/NYC Home Purchase/Code/nyc-property-search/latest/street-easier/data/2022-01-30/boundaries/1.index/maps/manhattan-central-park-south--buid--41eb83580bfd4a010d5492c27f6581351bd467ad.png",
  "d35cd4b3e4726eb61e3b2346c8fcf94a96bc2e77": "/Volumes/Home/Volume.noindex/Home/Projects/NYC Home Purchase/Code/nyc-property-search/latest/street-easier/data/2022-01-30/boundaries/1.index/maps/manhattan-central-park-west--buid--d35cd4b3e4726eb61e3b2346c8fcf94a96bc2e77.png",
  "587edd1dbbec7484665c9acf81a46689dcd93ac0": "/Volumes/Home/Volume.noindex/Home/Projects/NYC Home Purchase/Code/nyc-property-search/latest/street-easier/data/2022-01-30/boundaries/1.index/maps/manhattan-financial-district-park--buid--587edd1dbbec7484665c9acf81a46689dcd93ac0.png",
  "a2f2d7c522fb20e02abc89378328d6f64b117d30": "/Volumes/Home/Volume.noindex/Home/Projects/NYC Home Purchase/Code/nyc-property-search/latest/street-easier/data/2022-01-30/boundaries/1.index/maps/manhattan-gramery--buid--a2f2d7c522fb20e02abc89378328d6f64b117d30.png",
  "3fc29733a47208fc66b918ea4a485580d5d1ff06": "/Volumes/Home/Volume.noindex/Home/Projects/NYC Home Purchase/Code/nyc-property-search/latest/street-easier/data/2022-01-30/boundaries/1.index/maps/manhattan-hudson-river-greenway--buid--3fc29733a47208fc66b918ea4a485580d5d1ff06.png",
  "585c753c8488d8070c512a478cdf0d8e4b793340": "/Volumes/Home/Volume.noindex/Home/Projects/NYC Home Purchase/Code/nyc-property-search/latest/street-easier/data/2022-01-30/boundaries/1.index/maps/manhattan-john-v-lindsay-east-river-park--buid--585c753c8488d8070c512a478cdf0d8e4b793340.png",
  "41c1e78b114d4d0845b6b4ebdad1b9668fedd5cf": "/Volumes/Home/Volume.noindex/Home/Projects/NYC Home Purchase/Code/nyc-property-search/latest/street-easier/data/2022-01-30/boundaries/1.index/maps/manhattan-kipsbay-park--buid--41c1e78b114d4d0845b6b4ebdad1b9668fedd5cf.png",
  "a3be0373a18d191d2845e212042063e6256a44e4": "/Volumes/Home/Volume.noindex/Home/Projects/NYC Home Purchase/Code/nyc-property-search/latest/street-easier/data/2022-01-30/boundaries/1.index/maps/manhattan-madison-square-park--buid--a3be0373a18d191d2845e212042063e6256a44e4.png",
  "a342620c73f37908001fd039cba0fa791efcb218": "/Volumes/Home/Volume.noindex/Home/Projects/NYC Home Purchase/Code/nyc-property-search/latest/street-easier/data/2022-01-30/boundaries/1.index/maps/manhattan-marcus-garvey-park--buid--a342620c73f37908001fd039cba0fa791efcb218.png",
  "e9775ed180094aeb140419446562e06b03a79707": "/Volumes/Home/Volume.noindex/Home/Projects/NYC Home Purchase/Code/nyc-property-search/latest/street-easier/data/2022-01-30/boundaries/1.index/maps/manhattan-morningside-park--buid--e9775ed180094aeb140419446562e06b03a79707.png",
  "7545de5ec2b00f9ea132d7ceb88571cc19a3652a": "/Volumes/Home/Volume.noindex/Home/Projects/NYC Home Purchase/Code/nyc-property-search/latest/street-easier/data/2022-01-30/boundaries/1.index/maps/manhattan-riverside-park-north--buid--7545de5ec2b00f9ea132d7ceb88571cc19a3652a.png",
  "66f5908565b45b31a97dab8655c0d5b4a0d62186": "/Volumes/Home/Volume.noindex/Home/Projects/NYC Home Purchase/Code/nyc-property-search/latest/street-easier/data/2022-01-30/boundaries/1.index/maps/manhattan-riverside-park-south--buid--66f5908565b45b31a97dab8655c0d5b4a0d62186.png",
  "b2f0ad222ef5b19f5545a97b0550fba98e06521f": "/Volumes/Home/Volume.noindex/Home/Projects/NYC Home Purchase/Code/nyc-property-search/latest/street-easier/data/2022-01-30/boundaries/1.index/maps/manhattan-saint-nicholas-park--buid--b2f0ad222ef5b19f5545a97b0550fba98e06521f.png",
  "8a400ef4673e9a28e7cfa92a49ddf190329ac3ea": "/Volumes/Home/Volume.noindex/Home/Projects/NYC Home Purchase/Code/nyc-property-search/latest/street-easier/data/2022-01-30/boundaries/1.index/maps/manhattan-sara-d-roosevelt-park--buid--8a400ef4673e9a28e7cfa92a49ddf190329ac3ea.png",
  "01ba913aaac3936a83aaa9d4390680119a8a448b": "/Volumes/Home/Volume.noindex/Home/Projects/NYC Home Purchase/Code/nyc-property-search/latest/street-easier/data/2022-01-30/boundaries/1.index/maps/manhattan-thomas-jefferson-park--buid--01ba913aaac3936a83aaa9d4390680119a8a448b.png",
  "20934d90f6f31710ef01cea1251f02803fedf746": "/Volumes/Home/Volume.noindex/Home/Projects/NYC Home Purchase/Code/nyc-property-search/latest/street-easier/data/2022-01-30/boundaries/1.index/maps/manhattan-tudor-city-park--buid--20934d90f6f31710ef01cea1251f02803fedf746.png",
  "ac8f6b7fd95d0896010a7c3de2e8fb048991f85d": "/Volumes/Home/Volume.noindex/Home/Projects/NYC Home Purchase/Code/nyc-property-search/latest/street-easier/data/2022-01-30/boundaries/1.index/maps/manhattan-union-square--buid--ac8f6b7fd95d0896010a7c3de2e8fb048991f85d.png",
  "cd19cdfd61fdfe6d0f59b8852cca4fb9062f4061": "/Volumes/Home/Volume.noindex/Home/Projects/NYC Home Purchase/Code/nyc-property-search/latest/street-easier/data/2022-01-30/boundaries/1.index/maps/manhattan-washington-square-park--buid--cd19cdfd61fdfe6d0f59b8852cca4fb9062f4061.png",
  "29849f7d1125c4aa7a8984a7844f29ef7fcb9c5e": "/Volumes/Home/Volume.noindex/Home/Projects/NYC Home Purchase/Code/nyc-property-search/latest/street-easier/data/2022-01-30/boundaries/1.index/maps/queens-mccarren-park--buid--29849f7d1125c4aa7a8984a7844f29ef7fcb9c5e.png",
  "834a10b30633beda5b25a5fb96cf21f5f04f368a": "/Volumes/Home/Volume.noindex/Home/Projects/NYC Home Purchase/Code/nyc-property-search/latest/street-easier/data/2022-01-30/boundaries/1.index/maps/queens-waterclose--buid--834a10b30633beda5b25a5fb96cf21f5f04f368a.png"
}
